-0.0000000000000000000000000
-0.0000189894035429460927844
-0.0001649670302867889404297
-0.0005197309656068682670593
-0.0009119539754465222358704
-0.0007993865874595940113068
0.0005905415164306759834290
0.0038401838392019271850586
0.0087954495102167129516602
0.0141791049391031265258789
0.0176520366221666336059570
0.0164579972624778747558594
0.0085256835445761680603027
-0.0063578318804502487182617
-0.0258180331438779830932617
-0.0450394861400127410888672
-0.0579243414103984832763672
-0.0589948631823062896728516
-0.0454215072095394134521484
-0.0184191595762968063354492
0.0165918115526437759399414
0.0512527525424957275390625
0.0766330808401107788085938
0.0859375000000000000000000
0.0766330808401107788085938
0.0512527525424957275390625
0.0165918115526437759399414
-0.0184191595762968063354492
-0.0454215072095394134521484
-0.0589948631823062896728516
-0.0579243414103984832763672
-0.0450394861400127410888672
-0.0258180331438779830932617
-0.0063578318804502487182617
0.0085256835445761680603027
0.0164579972624778747558594
0.0176520366221666336059570
0.0141791049391031265258789
0.0087954495102167129516602
0.0038401838392019271850586
0.0005905415164306759834290
-0.0007993865874595940113068
-0.0009119539754465222358704
-0.0005197309656068682670593
-0.0001649670302867889404297
-0.0000189894035429460927844
-0.0000000000000000000000000

